^C:\USERS\VINCENZO.PALLADINO\DESKTOP\NEW FOLDER (2)\SOURCE.CPP
/c /ZI /JMC /nologo /W3 /WX- /diagnostics:classic /sdl /Od /Oy- /D WIN32 /D _DEBUG /D _CONSOLE /D _MBCS /Gm- /EHsc /RTC1 /MDd /GS /fp:precise /permissive- /Zc:wchar_t /Zc:forScope /Zc:inline /Fo"DEBUG\\" /Fd"DEBUG\VC141.PDB" /Gd /TP /analyze- /FC C:\USERS\VINCENZO.PALLADINO\DESKTOP\NEW FOLDER (2)\SOURCE.CPP
^C:\USERS\VINCENZO.PALLADINO\DESKTOP\NEW FOLDER (2)\MAXON MOTOR GET POSITION\SOURCE.CPP
/c /ZI /JMC /nologo /W3 /WX- /diagnostics:classic /sdl /Od /Oy- /D WIN32 /D _DEBUG /D _CONSOLE /D _MBCS /Gm- /EHsc /RTC1 /MDd /GS /fp:precise /permissive- /Zc:wchar_t /Zc:forScope /Zc:inline /Fo"DEBUG\\" /Fd"DEBUG\VC141.PDB" /Gd /TP /analyze- /FC C:\USERS\VINCENZO.PALLADINO\DESKTOP\NEW FOLDER (2)\MAXON MOTOR GET POSITION\SOURCE.CPP
