^C:\USERS\VINCENZO.PALLADINO\DESKTOP\NEW FOLDER (2)\EPOSCMD.LIB|C:\USERS\VINCENZO.PALLADINO\DESKTOP\NEW FOLDER (2)\NEW FOLDER\DEBUG\SOURCE.OBJ
/OUT:"C:\USERS\VINCENZO.PALLADINO\DESKTOP\NEW FOLDER (2)\NEW FOLDER\DEBUG\MAXON MOTOR.EXE" /INCREMENTAL /NOLOGO KERNEL32.LIB USER32.LIB GDI32.LIB WINSPOOL.LIB COMDLG32.LIB ADVAPI32.LIB SHELL32.LIB OLE32.LIB OLEAUT32.LIB UUID.LIB ODBC32.LIB ODBCCP32.LIB /MANIFEST /MANIFESTUAC:"level='asInvoker' uiAccess='false'" /manifest:embed /DEBUG:FASTLINK /PDB:"C:\USERS\VINCENZO.PALLADINO\DESKTOP\NEW FOLDER (2)\NEW FOLDER\DEBUG\MAXON MOTOR.PDB" /SUBSYSTEM:CONSOLE /TLBID:1 /DYNAMICBASE /NXCOMPAT /IMPLIB:"C:\USERS\VINCENZO.PALLADINO\DESKTOP\NEW FOLDER (2)\NEW FOLDER\DEBUG\MAXON MOTOR.LIB" /MACHINE:X86 DEBUG\SOURCE.OBJ..\EPOSCMD.LIB
^C:\USERS\VINCENZO.PALLADINO\DESKTOP\NEW FOLDER (2)\MAXON MOTOR GET POSITION\EPOSCMD.LIB|C:\USERS\VINCENZO.PALLADINO\DESKTOP\NEW FOLDER (2)\MAXON MOTOR GET POSITION\EXE MAXON MOTOR CONTROL\DEBUG\SOURCE.OBJ
/OUT:"C:\USERS\VINCENZO.PALLADINO\DESKTOP\NEW FOLDER (2)\MAXON MOTOR GET POSITION\EXE MAXON MOTOR CONTROL\DEBUG\MAXON MOTOR.EXE" /INCREMENTAL /NOLOGO KERNEL32.LIB USER32.LIB GDI32.LIB WINSPOOL.LIB COMDLG32.LIB ADVAPI32.LIB SHELL32.LIB OLE32.LIB OLEAUT32.LIB UUID.LIB ODBC32.LIB ODBCCP32.LIB /MANIFEST /MANIFESTUAC:"level='asInvoker' uiAccess='false'" /manifest:embed /DEBUG:FASTLINK /PDB:"C:\USERS\VINCENZO.PALLADINO\DESKTOP\NEW FOLDER (2)\MAXON MOTOR GET POSITION\EXE MAXON MOTOR CONTROL\DEBUG\MAXON MOTOR.PDB" /SUBSYSTEM:CONSOLE /TLBID:1 /DYNAMICBASE /NXCOMPAT /IMPLIB:"C:\USERS\VINCENZO.PALLADINO\DESKTOP\NEW FOLDER (2)\MAXON MOTOR GET POSITION\EXE MAXON MOTOR CONTROL\DEBUG\MAXON MOTOR.LIB" /MACHINE:X86 DEBUG\SOURCE.OBJ..\EPOSCMD.LIB
