^C:\USERS\VINCENZO.PALLADINO\DESKTOP\NEW FOLDER (2)\MAXON MOTOR GET POSITION\EPOSCMD.LIB|C:\USERS\VINCENZO.PALLADINO\DESKTOP\NEW FOLDER (2)\MAXON MOTOR GET POSITION\EXE MAXON MOTOR CONTROL\DEBUG\SOURCE.OBJ
C:\USERS\VINCENZO.PALLADINO\DESKTOP\NEW FOLDER (2)\MAXON MOTOR GET POSITION\EXE MAXON MOTOR CONTROL\DEBUG\MAXON MOTOR.EXE
C:\USERS\VINCENZO.PALLADINO\DESKTOP\NEW FOLDER (2)\MAXON MOTOR GET POSITION\EXE MAXON MOTOR CONTROL\DEBUG\MAXON MOTOR.ILK
C:\USERS\VINCENZO.PALLADINO\DESKTOP\NEW FOLDER (2)\MAXON MOTOR GET POSITION\EXE MAXON MOTOR CONTROL\DEBUG\MAXON MOTOR.PDB
