^C:\USERS\VINCENZO.PALLADINO\DESKTOP\NEW FOLDER (2)\EPOSCMD.LIB|C:\USERS\VINCENZO.PALLADINO\DESKTOP\NEW FOLDER (2)\NEW FOLDER\DEBUG\SOURCE.OBJ
C:\USERS\VINCENZO.PALLADINO\DESKTOP\NEW FOLDER (2)\NEW FOLDER\DEBUG\MAXON MOTOR.EXE
C:\USERS\VINCENZO.PALLADINO\DESKTOP\NEW FOLDER (2)\NEW FOLDER\DEBUG\MAXON MOTOR.ILK
C:\USERS\VINCENZO.PALLADINO\DESKTOP\NEW FOLDER (2)\NEW FOLDER\DEBUG\MAXON MOTOR.PDB
